[gd_scene load_steps=5 format=2]

[ext_resource path="res://assets/animations/man/jour2.png" type="Texture" id=1]
[ext_resource path="res://scripts/Cinematique.gd" type="Script" id=2]
[ext_resource path="res://assets/animations/woman/nuit2.png" type="Texture" id=3]
[ext_resource path="res://scripts/CinematiqueNuit.gd" type="Script" id=4]




[node name="Nuit2" type="Node2D"]
position = Vector2( 300, 300 )
scale = Vector2( 0.75, 0.75 )

[node name="Jour" type="Sprite" parent="."]
texture = ExtResource( 1 )
script = ExtResource( 2 )
next_scene = "Stage8"
end = true

[node name="Timer" type="Timer" parent="Jour"]
wait_time = 5.0
one_shot = true
autostart = true

[node name="Nuit" type="Sprite" parent="."]
texture = ExtResource( 3 )
script = ExtResource( 4 )

[node name="Timer" type="Timer" parent="Nuit"]
wait_time = 2.0
one_shot = true
autostart = true
