[gd_scene load_steps=7 format=2]

[ext_resource path="res://scripts/Stage.gd" type="Script" id=1]
[ext_resource path="res://scenes/Object.tscn" type="PackedScene" id=2]
[ext_resource path="res://scenes/Goal.tscn" type="PackedScene" id=3]
[ext_resource path="res://scenes/Player.tscn" type="PackedScene" id=4]
[ext_resource path="res://scenes/Floor.tscn" type="PackedScene" id=5]
[ext_resource path="res://assets/sound/SFX_win.wav" type="AudioStream" id=6]

[node name="Stage1" type="Node2D"]
scale = Vector2( 0.75, 0.75 )
script = ExtResource( 1 )

[node name="ColorRect" type="ColorRect" parent="."]
margin_left = -9.0
margin_top = -7.0
margin_right = 810.0
margin_bottom = 809.0

[node name="Object" parent="." instance=ExtResource( 2 )]
position = Vector2( 346.053, 632.719 )
animation = "stage1"

[node name="Goal" parent="." instance=ExtResource( 3 )]
position = Vector2( 659.445, 469.437 )

[node name="Player" parent="." instance=ExtResource( 4 )]
position = Vector2( 67.5746, 704.148 )
next_scene = "Jour1"

[node name="Floor" parent="." instance=ExtResource( 5 )]
position = Vector2( 4, 0 )
tile_data = PoolIntArray( 65537, 0, 0, 65538, 5, 0, 65540, 4, 0, 65542, 1, 0, 65546, 1, 0, 65550, 5, 0, 65552, 5, 0, 65554, 4, 0, 65556, 2, 0, 131072, 0, 0, 131073, 9, 0, 131092, 7, 0, 196608, 3, 0, 262164, 6, 0, 262165, 4, 0, 262167, 2, 0, 327703, 3, 0, 458752, 3, 0, 589847, 3, 0, 720896, 7, 0, 851968, 8, 0, 851991, 8, 0, 983040, 8, 0, 983063, 7, 0, 1114112, 7, 0, 1114124, 0, 0, 1114125, 1, 0, 1114129, 4, 0, 1114131, 5, 0, 1114133, 4, 0, 1114135, 9, 0, 1179660, 8, 0, 1245184, 7, 0, 1310727, 0, 0, 1310728, 1, 0, 1310732, 9, 0, 1376256, 8, 0, 1376263, 7, 0, 1507328, 6, 0, 1507329, 4, 0, 1507331, 1, 0, 1507335, 9, 0 )

[node name="SFX_win" type="AudioStreamPlayer" parent="."]
stream = ExtResource( 6 )
pitch_scale = 2.0
[connection signal="goal" from="Goal" to="." method="_on_Goal_goal"]
