[gd_scene load_steps=8 format=2]

[ext_resource path="res://scripts/StageWoman.gd" type="Script" id=1]
[ext_resource path="res://scenes/Woman.tscn" type="PackedScene" id=2]
[ext_resource path="res://scenes/Tache.tscn" type="PackedScene" id=3]
[ext_resource path="res://scenes/FloorWoman.tscn" type="PackedScene" id=4]
[ext_resource path="res://assets/arial.ttf" type="DynamicFontData" id=5]
[ext_resource path="res://scenes/StartStage.tscn" type="PackedScene" id=6]

[sub_resource type="DynamicFont" id=1]
size = 34
font_data = ExtResource( 5 )

[node name="Stage6" type="Node2D"]
scale = Vector2( 0.75, 0.75 )
script = ExtResource( 1 )

[node name="ColorRect" type="ColorRect" parent="."]
margin_left = -17.0
margin_top = -14.0
margin_right = 818.0
margin_bottom = 812.0
color = Color( 0, 0, 0, 1 )
__meta__ = {
"_edit_lock_": true
}

[node name="Woman" parent="." instance=ExtResource( 2 )]
position = Vector2( 82.1331, 735.665 )
jump_speed = -510
next_scene = "Nuit1"

[node name="Tache" parent="." instance=ExtResource( 3 )]
position = Vector2( 389.972, 762.762 )
animation = "pythagore"

[node name="Tache2" parent="." instance=ExtResource( 3 )]
position = Vector2( 90.6912, 473.982 )
animation = "fonction"

[node name="Tache3" parent="." instance=ExtResource( 3 )]
position = Vector2( 73.0784, 278.341 )
animation = "integrale"

[node name="Timer" type="Timer" parent="."]
wait_time = 10.0
one_shot = true
autostart = true

[node name="FloorWoman" parent="." instance=ExtResource( 4 )]
tile_data = PoolIntArray( 196614, 0, 0, 196615, 7, 0, 196617, 6, 0, 196619, 1, 0, 196623, 3, 0, 262145, 0, 0, 262146, 1, 0, 262150, 4, 0, 262159, 8, 0, 327681, 9, 0, 393231, 5, 0, 393232, 1, 0, 393236, 3, 0, 458753, 8, 0, 458772, 5, 0, 458773, 6, 0, 458775, 3, 0, 524311, 5, 0, 524312, 3, 0, 589825, 5, 0, 589826, 1, 0, 589830, 3, 0, 589848, 2, 0, 655361, 0, 0, 655362, 1, 0, 655366, 4, 0, 720897, 9, 0, 786443, 0, 0, 786444, 6, 0, 786446, 7, 0, 786448, 3, 0, 851969, 8, 0, 851979, 5, 0, 851980, 1, 0, 851984, 4, 0, 851992, 8, 0, 983041, 5, 0, 983042, 1, 0, 983046, 3, 0, 983061, 0, 0, 983062, 6, 0, 983064, 4, 0, 1048579, 0, 0, 1048580, 7, 0, 1048582, 4, 0, 1048597, 8, 0, 1114112, 0, 0, 1114113, 6, 0, 1114115, 4, 0, 1179648, 2, 0, 1179664, 0, 0, 1179665, 1, 0, 1179669, 4, 0, 1245200, 2, 0, 1376261, 0, 0, 1376262, 1, 0, 1376266, 3, 0, 1441792, 8, 0, 1441797, 8, 0, 1441802, 9, 0, 1507341, 0, 0, 1507342, 7, 0, 1507344, 4, 0, 1572864, 5, 0, 1572865, 1, 0, 1572869, 4, 0, 1572874, 5, 0, 1572875, 6, 0, 1572877, 4, 0 )

[node name="Control" type="Control" parent="."]
margin_right = 800.0
margin_bottom = 800.0
__meta__ = {
"_edit_lock_": true
}

[node name="Label" type="Label" parent="Control"]
anchor_left = 1.0
anchor_right = 1.0
margin_left = -272.0
margin_bottom = 68.0
custom_fonts/font = SubResource( 1 )
custom_colors/font_color = Color( 1, 1, 1, 1 )
text = "Time left: 8.52"
align = 1
valign = 1

[node name="StartStage" parent="." instance=ExtResource( 6 )]
[connection signal="hit" from="Tache" to="." method="_on_Tache_hit"]
[connection signal="hit" from="Tache2" to="." method="_on_Tache_hit"]
[connection signal="hit" from="Tache3" to="." method="_on_Tache_hit"]
[connection signal="timeout" from="Timer" to="." method="_on_Timer_timeout"]
